…
}


sim_df = vector("list", 5000)
for (i in 1:5000) {
  sim_df[[i]] = sim_t_test()
}

sim_df = sim_df %>% 
    bind_rows()
  
sim_df
```

    ## # A tibble: 5,000 × 2
    ##    estimate p.value
    ##       <dbl>   <dbl>
    ##  1    0.575   0.526
    ##  2    0.868   0.386
    ##  3    1.47    0.107
    ##  4    0.363   0.637
    ##  5   -0.562   0.569
    ##  6    0.808   0.396
    ##  7   -0.429   0.590
    ##  8   -0.102   0.912
    ##  9   -1.20    0.226
    ## 10    0.738   0.421
    ## # … with 4,990 more rows
…
  for (i in 1:5000) {
    sim_mu[[i]] = sim_t_test(mu = murange)
  }
  
  sim_mu = sim_mu %>% 
    bind_rows()
  
  sim_mu
}

map(.x = 0:6, ~sim_t_murange(murange = .x))
```

    ## [[1]]
    ## # A tibble: 5,000 × 2
    ##    estimate p.value
    ##       <dbl>   <dbl>
    ##  1    0.767   0.481
    ##  2    0.555   0.545
    ##  3    0.427   0.634
    ##  4    0.400   0.623
    ##  5    0.453   0.612
    ##  6   -0.353   0.694
    ##  7   -0.661   0.468
    ##  8    0.924   0.379
    ##  9   -0.897   0.330
    ## 10    1.15    0.229
    ## # … with 4,990 more rows
    ## 
    ## [[2]]
    ## # A tibble: 5,000 × 2
    ##    estimate p.value
    ##       <dbl>   <dbl>
    ##  1    0.246  0.778 
    ##  2   -0.388  0.662 
    ##  3    1.51   0.134 
    ##  4    0.805  0.392 
    ##  5    0.388  0.693 
    ##  6    1.30   0.0921
    ##  7    0.841  0.337 
    ##  8   -0.122  0.885 
    ##  9    1.57   0.0890
    ## 10    0.969  0.192 
    ## # … with 4,990 more rows
    ## 
    ## [[3]]
    ## # A tibble: 5,000 × 2
    ##    estimate p.value
    ##       <dbl>   <dbl>
    ##  1    2.62  0.00773
    ##  2    1.57  0.0674 
    ##  3    2.62  0.00530
    ##  4    1.67  0.146  
    ##  5    0.528 0.557  
    ##  6    3.32  0.00153
    ##  7    1.82  0.0416 
    ##  8    0.810 0.406  
    ##  9    0.469 0.701  
    ## 10    0.304 0.718  
    ## # … with 4,990 more rows
    ## 
    ## [[4]]
    ## # A tibble: 5,000 × 2
    ##    estimate   p.value
    ##       <dbl>     <dbl>
    ##  1     2.85 0.00401  
    ##  2     3.36 0.000236 
    ##  3     3.90 0.0000336
    ##  4     2.20 0.0374   
    ##  5     2.33 0.0261   
    ##  6     2.31 0.0266   
    ##  7     2.59 0.00394  
    ##  8     4.90 0.0000205
    ##  9     2.71 0.00202  
    ## 10     2.84 0.00331  
    ## # … with 4,990 more rows
    ## 
    ## [[5]]
    ## # A tibble: 5,000 × 2
    ##    estimate      p.value
    ##       <dbl>        <dbl>
    ##  1     5.00 0.000000335 
    ##  2     5.41 0.0000168   
    ##  3     6.24 0.0000000426
    ##  4     4.74 0.000000746 
    ##  5     3.99 0.0000512   
    ##  6     5.49 0.0000437   
    ##  7     4.21 0.0000425   
    ##  8     3.26 0.0000522   
    ##  9     5.60 0.000000655 
    ## 10     4.97 0.00000461  
    ## # … with 4,990 more rows
    ## 
    ## [[6]]
    ## # A tibble: 5,000 × 2
    ##    estimate       p.value
    ##       <dbl>         <dbl>
    ##  1     5.43 0.00000000904
    ##  2     6.01 0.0000000253 
    ##  3     4.94 0.00000780   
    ##  4     6.98 0.0000000257 
    ##  5     5.91 0.00000313   
    ##  6     5.26 0.000000400  
    ##  7     5.51 0.00000219   
    ##  8     4.99 0.0000342    
    ##  9     4.93 0.00000736   
    ## 10     2.76 0.000785     
    ## # … with 4,990 more rows
    ## 
    ## [[7]]
    ## # A tibble: 5,000 × 2
    ##    estimate      p.value
    ##       <dbl>        <dbl>
    ##  1     5.84 0.00000895  
    ##  2     5.77 0.000000454 
    ##  3     5.27 0.0000000576
    ##  4     7.02 0.000000569 
    ##  5     5.19 0.00000100  
    ##  6     4.65 0.0000865   
    ##  7     6.37 0.0000000633
    ##  8     5.89 0.00000275  
    ##  9     5.63 0.00000385  
    ## 10     5.54 0.0000000477
    ## # … with 4,990 more rows
…
